{
    "serialnumbers":[
        "W9614790001",
        "W9581430001",
        "W9567470001",
        "W9438480001",
        "W9559300001",
        "W9468010001",
        "009226890001",
        "W9412020001",
        "W9401080001",
        "009130850001",
        "009332830001",
        "009255490001",
        "009130880001",
        "008897390001",
        "008902170001",
        "008896660001",
        "008805530001"
    ],
    "keys":{
        "Warmwasser":[
            "WMZ_WW_ST1bis4",
            "WMZ_WW_ST5bis8",
            "WMZ_WW_ST9bis12"
        ],
        "Heizen":[
            "WMZ_H_ST1bis4",
            "WMZ_H_ST5bis8",
            "WMZ_H_ST9bis12"
        ],
        "Kuehlen":[

        ]
    },
    "result_keys":{
        "Warmwasser": "WMZ_WW",
        "Heizen": "WMZ_HZ"
    }
}

